﻿//# Copyright (c) 1997-2011 Oracle Corporation, All rights reserved
//# VERSION 1
//# BEGIN SESSION  ChangeLogTimeStamp:2014-10-10 15:25:01.381
//# SAVED : 2014-10-10 15:25:01.838
//# BEGIN SESSION  ChangeLogTimeStamp:2014-10-13 09:25:45.178
//# END SESSION  ChangeLogTimeStamp:2014-10-13 11:29:03.767
