﻿//# Copyright (c) 1997-2011 Oracle Corporation, All rights reserved
//# VERSION 1
//# BEGIN SESSION  ChangeLogTimeStamp:2014-08-14 14:03:58.922
//# SAVED : 2014-08-14 14:03:59.522
//# BEGIN SESSION  ChangeLogTimeStamp:2014-08-14 14:26:35.150
//# END SESSION  ChangeLogTimeStamp:2014-08-14 14:48:51.295
