﻿//# Copyright (c) 1997-2011 Oracle Corporation, All rights reserved
//# VERSION 1
//# BEGIN SESSION  ChangeLogTimeStamp:2014-10-09 15:11:57.629
//# END SESSION  ChangeLogTimeStamp:2014-10-09 15:15:17.995
