﻿//# Copyright (c) 1997-2011 Oracle Corporation, All rights reserved
//# VERSION 1
//# BEGIN SESSION  ChangeLogTimeStamp:2014-09-17 10:52:06.887
//# END SESSION  ChangeLogTimeStamp:2014-09-17 11:02:48.747
