﻿//# Copyright (c) 1997-2011 Oracle Corporation, All rights reserved
//# VERSION 1
//# BEGIN SESSION  ChangeLogTimeStamp:2014-09-22 16:54:01.079
//# BEGIN SESSION  ChangeLogTimeStamp:2014-09-23 09:16:43.432
//# END SESSION  ChangeLogTimeStamp:2014-09-23 09:46:04.455
