﻿//# Copyright (c) 1997-2011 Oracle Corporation, All rights reserved
//# VERSION 1
//# BEGIN SESSION  ChangeLogTimeStamp:2014-08-23 16:21:16.280
//# BEGIN SESSION  ChangeLogTimeStamp:2014-08-23 22:43:18.532
//# END SESSION  ChangeLogTimeStamp:2014-08-23 23:07:05.949
