﻿//# Copyright (c) 1997-2011 Oracle Corporation, All rights reserved
//# VERSION 1
//# BEGIN SESSION  ChangeLogTimeStamp:2014-09-17 15:43:00.935
//# END SESSION  ChangeLogTimeStamp:2014-09-17 16:02:32.734
