﻿//# Copyright (c) 1997-2011 Oracle Corporation, All rights reserved
//# VERSION 1
//# BEGIN SESSION  ChangeLogTimeStamp:2014-08-26 11:06:56.947
//# END SESSION  ChangeLogTimeStamp:2014-08-26 11:10:48.226
