﻿//# Copyright (c) 1997-2011 Oracle Corporation, All rights reserved
//# VERSION 1
//# BEGIN SESSION  ChangeLogTimeStamp:2014-08-15 03:29:08.610
//# SAVED : 2014-08-15 03:29:09.414
//# END SESSION  ChangeLogTimeStamp:2014-08-15 03:36:10.696
