﻿//# Copyright (c) 1997-2011 Oracle Corporation, All rights reserved
//# VERSION 1
//# BEGIN SESSION  ChangeLogTimeStamp:2014-09-24 14:48:22.294
//# END SESSION  ChangeLogTimeStamp:2014-09-24 14:48:23.063
//# BEGIN SESSION  ChangeLogTimeStamp:2014-09-24 14:48:28.441
//# END SESSION  ChangeLogTimeStamp:2014-09-24 14:48:29.964
//# BEGIN SESSION  ChangeLogTimeStamp:2014-09-24 14:49:23.086
//# END SESSION  ChangeLogTimeStamp:2014-09-24 14:49:23.860
//# BEGIN SESSION  ChangeLogTimeStamp:2014-09-24 14:49:29.621
//# END SESSION  ChangeLogTimeStamp:2014-09-24 14:49:30.568
//# BEGIN SESSION  ChangeLogTimeStamp:2014-09-24 15:06:20.093
//# END SESSION  ChangeLogTimeStamp:2014-09-24 15:06:24.917
//# BEGIN SESSION  ChangeLogTimeStamp:2014-09-24 15:06:30.474
//# END SESSION  ChangeLogTimeStamp:2014-09-24 15:06:31.592
//# BEGIN SESSION  ChangeLogTimeStamp:2014-09-24 15:19:45.513
//# END SESSION  ChangeLogTimeStamp:2014-09-24 15:19:47.036
//# BEGIN SESSION  ChangeLogTimeStamp:2014-09-24 15:19:51.535
//# END SESSION  ChangeLogTimeStamp:2014-09-24 15:19:52.430
