﻿//# Copyright (c) 1997-2011 Oracle Corporation, All rights reserved
//# VERSION 1
//# BEGIN SESSION  ChangeLogTimeStamp:2014-09-25 10:57:43.584
//# END SESSION  ChangeLogTimeStamp:2014-09-25 11:20:25.603
