﻿//# Copyright (c) 1997-2011 Oracle Corporation, All rights reserved
//# VERSION 1
//# BEGIN SESSION  ChangeLogTimeStamp:2014-08-22 16:56:43.348
//# END SESSION  ChangeLogTimeStamp:2014-08-22 17:01:54.966
