﻿//# Copyright (c) 1997-2011 Oracle Corporation, All rights reserved
//# VERSION 1
//# BEGIN SESSION  ChangeLogTimeStamp:2014-08-14 14:49:47.653
//# SAVED : 2014-08-14 14:49:48.379
//# BEGIN SESSION  ChangeLogTimeStamp:2014-08-14 22:07:08.040
//# BEGIN SESSION  ChangeLogTimeStamp:2014-08-15 02:28:22.317
//# END SESSION  ChangeLogTimeStamp:2014-08-15 02:45:41.543
