﻿//# Copyright (c) 1997-2011 Oracle Corporation, All rights reserved
//# VERSION 1
//# BEGIN SESSION  ChangeLogTimeStamp:2014-08-22 17:24:12.105
//# END SESSION  ChangeLogTimeStamp:2014-08-22 17:44:23.516
