﻿//# Copyright (c) 1997-2011 Oracle Corporation, All rights reserved
//# VERSION 1
//# BEGIN SESSION  ChangeLogTimeStamp:2014-09-25 10:00:51.129
//# END SESSION  ChangeLogTimeStamp:2014-09-25 10:16:12.949
