﻿//# Copyright (c) 1997-2011 Oracle Corporation, All rights reserved
//# VERSION 1
//# BEGIN SESSION  ChangeLogTimeStamp:2014-09-15 13:37:59.470
//# END SESSION  ChangeLogTimeStamp:2014-09-15 13:52:51.386
