﻿//# Copyright (c) 1997-2011 Oracle Corporation, All rights reserved
//# VERSION 1
//# BEGIN SESSION  ChangeLogTimeStamp:2014-09-30 16:23:28.613
//# BEGIN SESSION  ChangeLogTimeStamp:2014-10-01 11:46:29.327
//# END SESSION  ChangeLogTimeStamp:2014-10-01 14:39:47.412
