﻿//# Copyright (c) 1997-2011 Oracle Corporation, All rights reserved
//# VERSION 1
//# BEGIN SESSION  ChangeLogTimeStamp:2014-09-24 16:09:16.015
//# END SESSION  ChangeLogTimeStamp:2014-09-24 16:15:31.989
